Time: 1583973914, Messages: 0, Members Joined: 0
Time: 1583973919, Messages: 0, Members Joined: 0
Time: 1583973924, Messages: 0, Members Joined: 0
Time: 1583973929, Messages: 0, Members Joined: 0
Time: 1583973934, Messages: 0, Members Joined: 0
Time: 1583973939, Messages: 0, Members Joined: 0
Time: 1583973944, Messages: 0, Members Joined: 0
Time: 1583973949, Messages: 0, Members Joined: 0
Time: 1583973954, Messages: 0, Members Joined: 0
Time: 1583973959, Messages: 0, Members Joined: 0
Time: 1583973964, Messages: 0, Members Joined: 0
Time: 1583973969, Messages: 0, Members Joined: 0
Time: 1583973974, Messages: 0, Members Joined: 0
Time: 1583973979, Messages: 0, Members Joined: 0
Time: 1583973984, Messages: 0, Members Joined: 0
Time: 1583973989, Messages: 0, Members Joined: 0
Time: 1583973994, Messages: 0, Members Joined: 0
Time: 1583973999, Messages: 0, Members Joined: 0
Time: 1583974004, Messages: 0, Members Joined: 0
Time: 1583974009, Messages: 0, Members Joined: 0
Time: 1583974014, Messages: 0, Members Joined: 0
Time: 1583974019, Messages: 0, Members Joined: 0
Time: 1583974024, Messages: 0, Members Joined: 0
Time: 1583974029, Messages: 0, Members Joined: 0
Time: 1583974034, Messages: 0, Members Joined: 0
Time: 1583974039, Messages: 0, Members Joined: 0
Time: 1583974044, Messages: 0, Members Joined: 0
Time: 1583974049, Messages: 0, Members Joined: 0
Time: 1583974054, Messages: 0, Members Joined: 0
Time: 1583974059, Messages: 0, Members Joined: 0
Time: 1583974064, Messages: 0, Members Joined: 0
Time: 1583974069, Messages: 0, Members Joined: 0
Time: 1583974074, Messages: 0, Members Joined: 0
Time: 1583974079, Messages: 0, Members Joined: 0
Time: 1583974084, Messages: 0, Members Joined: 0
Time: 1583974089, Messages: 0, Members Joined: 0
Time: 1583974094, Messages: 0, Members Joined: 0
Time: 1583974099, Messages: 0, Members Joined: 0
Time: 1583974104, Messages: 0, Members Joined: 0
Time: 1583974109, Messages: 0, Members Joined: 0
Time: 1584477157, Messages: 0, Members Joined: 0
Time: 1584477162, Messages: 0, Members Joined: 0
Time: 1584477167, Messages: 0, Members Joined: 0
Time: 1584477172, Messages: 0, Members Joined: 0
Time: 1584477177, Messages: 0, Members Joined: 0
